"specMatrix_dead"	"siteRow"	"siteRow"	"siteRow"	"siteRow"	"siteRow"	"siteRow"	"siteRow"	"siteRow"	"siteRow"	"siteRow"	"siteRow"	"siteRow"
"1"	"site"	"13.one.19"	"13.three.19"	"15.one.19"	"15.three.19"	"8.one.19"	"8.three.19"	"9.one.19"	"9.three.19"	"JCM3501"	"JCM3502"	"JCM3507"	"JCM3508"
"2"	"Cyclophorid_sp"	"0"	"0"	"0"	"1"	"0"	"0"	"0"	"0"	"0"	"0"	"0"	"0"
"3"	"H_???"	"0"	"0"	"0"	"0"	"0"	"0"	"0"	"0"	"0"	"0"	"0"	"0"
"4"	"H_chilorhytis"	"0"	"0"	"0"	"0"	"0"	"0"	"0"	"0"	"1"	"0"	"0"	"0"
"5"	"H_elegantissima"	"0"	"0"	"0"	"0"	"0"	"0"	"0"	"0"	"0"	"0"	"0"	"0"
"6"	"H_inflatula"	"0"	"0"	"0"	"0"	"0"	"0"	"0"	"0"	"0"	"0"	"0"	"0"
"7"	"H_loxodonta"	"0"	"0"	"0"	"1"	"0"	"4"	"0"	"0"	"0"	"1"	"0"	"0"
"8"	"H_papiliopapilio"	"0"	"0"	"0"	"0"	"0"	"0"	"0"	"0"	"0"	"2"	"0"	"0"
"9"	"H_polymorpha"	"0"	"0"	"0"	"0"	"0"	"0"	"0"	"0"	"0"	"0"	"0"	"0"
"10"	"H_ringensringens"	"0"	"0"	"0"	"1"	"0"	"0"	"0"	"0"	"1"	"9"	"0"	"0"
"11"	"H_spinoscapula"	"0"	"0"	"0"	"0"	"0"	"0"	"0"	"0"	"0"	"0"	"0"	"0"
"12"	"H_triplochilus"	"0"	"2"	"0"	"0"	"0"	"0"	"0"	"1"	"0"	"6"	"0"	"0"
"13"	"P_albata"	"0"	"0"	"0"	"0"	"0"	"0"	"0"	"0"	"0"	"0"	"2"	"0"
"14"	"P_diploAY"	"0"	"0"	"0"	"0"	"0"	"0"	"0"	"0"	"0"	"0"	"0"	"0"
"15"	"P_diploCL"	"0"	"0"	"0"	"0"	"0"	"0"	"0"	"1"	"1"	"2"	"0"	"0"
"16"	"P_diploDB"	"0"	"0"	"0"	"0"	"0"	"0"	"0"	"3"	"0"	"0"	"0"	"0"
"17"	"P_patula"	"0"	"0"	"0"	"0"	"0"	"0"	"0"	"0"	"0"	"0"	"0"	"0"
"18"	"P_straightsmall"	"0"	"0"	"0"	"0"	"0"	"0"	"0"	"0"	"5"	"0"	"0"	"0"
"19"	"P_strigata"	"0"	"2"	"0"	"0"	"0"	"0"	"0"	"1"	"1"	"0"	"0"	"0"
"20"	"Pal_rufocallosa"	"0"	"0"	"0"	"1"	"0"	"0"	"0"	"0"	"1"	"1"	"0"	"0"
"21"	"Pupina"	"0"	"0"	"0"	"0"	"0"	"0"	"0"	"0"	"0"	"0"	"0"	"0"
"22"	"Pythia"	"0"	"2"	"1"	"0"	"0"	"0"	"0"	"1"	"0"	"0"	"0"	"0"
"23"	"Omph_cheynei"	"1"	"7"	"1"	"13"	"0"	"1"	"2"	"0"	"1"	"1"	"0"	"0"
"24"	"Omph_pilosa"	"0"	"0"	"0"	"0"	"0"	"0"	"0"	"0"	"0"	"0"	"0"	"0"
"25"	"Truncatella_guerinii"	"0"	"0"	"0"	"0"	"0"	"0"	"0"	"0"	"0"	"0"	"0"	"0"
"26"	"Georissa_sp"	"0"	"1"	"0"	"0"	"0"	"0"	"0"	"0"	"0"	"0"	"2"	"0"
"27"	"Semp_xyleborus"	"1"	"2"	"0"	"0"	"0"	"0"	"0"	"0"	"0"	"1"	"1"	"0"
"28"	"Aaad_fuscfusc"	"0"	"2"	"0"	"0"	"0"	"0"	"0"	"0"	"0"	"0"	"0"	"0"
"29"	"Eucon_sp"	"1"	"2"	"0"	"4"	"0"	"0"	"0"	"3"	"0"	"0"	"1"	"0"
"30"	"Kororia"	"0"	"1"	"0"	"0"	"2"	"0"	"0"	"0"	"1"	"0"	"0"	"0"
"31"	"Palaua"	"0"	"0"	"2"	"4"	"0"	"0"	"0"	"1"	"0"	"0"	"0"	"0"
"32"	"Subulinid"	"0"	"6"	"0"	"1"	"0"	"0"	"0"	"1"	"0"	"0"	"0"	"0"
"33"	"Liravidena"	"0"	"0"	"0"	"0"	"0"	"0"	"0"	"0"	"0"	"0"	"0"	"0"
"34"	"Videna"	"0"	"2"	"0"	"0"	"0"	"0"	"0"	"0"	"0"	"1"	"0"	"0"
